Socioeconomic Determinants of Depression & Diabetes Using NHANES (2017–2020)
…
# Extract coefficients as sparse matrix
lasso_coef_b <- coef(cv_lasso_b, s = cv_lasso_b$lambda.min)

# Convert to a tidy tibble (rename properly)
library(tibble)

lasso_vars_b <- as_tibble(as.matrix(lasso_coef_b), rownames = "Variable") %>%
  rename(Coefficient = `s1`) %>%  # 's1' is often the auto-assigned column name
  filter(Coefficient != 0)

# View selected variables
print(lasso_vars_b)

## # A tibble: 26 × 2
##    Variable             Coefficient
##    <chr>                      <dbl>
##  1 (Intercept)              -2.61  
##  2 Current_drink            -0.289 
##  3 gender                    0.354 
##  4 as.factor(age_cat)1       0.0311
##  5 as.factor(age_cat)2       1.25  
##  6 as.factor(age_cat)3       1.63  
##  7 as.factor(age_cat)4       2.31  
##  8 as.factor(age_cat)5       2.14  
##  9 as.factor(RIDRETH3)2     -0.332 
## 10 as.factor(RIDRETH3)3     -0.453 
## # ℹ 16 more rows
…
